{
    "type":"FeatureCollection",
    "features":[{
        "type":"Feature",
        "geometry":{
            "type":"Point",
            "coordinates":[393526.2647,6469799.481]
        },      
        "properties":{
            "OBJECTID":1,
            "UID":1
        },
        "id":"Rndm100ptsProjected.1"
    },
    {
        "type":"Feature",
        "geometry":{
            "type":"Point",
            "coordinates":[399132.5079,6461180.3543]
        },                 
        "properties":{
            "OBJECTID":2,
            "UID":2
        },
        "id":"Rndm100ptsProjected.2"
        },
        {
            "type":"Feature",
            "geometry":{
                "type":"Point",
                "coordinates":[383785.9997,6465928.7434]
            },
            "properties":{
                "OBJECTID":3,
                "UID":3
            },
            "id":"Rndm100ptsProjected.3"
        },
        {
            "type":"Feature",
            "geometry":{
                "type":"Point",
                "coordinates":[404067.9152,6453998.37]
                },
            "properties":{
                "OBJECTID":4,
                "UID":4
            },
            "id":"Rndm100ptsProjected.4"
        },
        {
            "type":"Feature",
            "geometry":{
                "type":"Point",
                "coordinates":[404047.9152,6454998.37]
            },
            "properties":{
                "OBJECTID":5,
                "UID":5
            },
            "id":"Rndm100ptsProjected.5"
        }
    ]
}
