/home/suraj/Documents/Unimelb_Study/Sem4/project/bitbucket_repos/walkabilityaurin/Walkability-5points/src/main/java/org/mccaughey/priorityAllocation/AllocationUtils.java
/home/suraj/Documents/Unimelb_Study/Sem4/project/bitbucket_repos/walkabilityaurin/Walkability-5points/src/main/java/org/mccaughey/statistics/ZScore.java
/home/suraj/Documents/Unimelb_Study/Sem4/project/bitbucket_repos/walkabilityaurin/Walkability-5points/src/main/java/org/mccaughey/density/DwellingDensityOMS.java
/home/suraj/Documents/Unimelb_Study/Sem4/project/bitbucket_repos/walkabilityaurin/Walkability-5points/src/main/java/org/mccaughey/utilities/ValidationUtils.java
/home/suraj/Documents/Unimelb_Study/Sem4/project/bitbucket_repos/walkabilityaurin/Walkability-5points/src/main/java/org/mccaughey/connectivity/NetworkBufferBatch.java
/home/suraj/Documents/Unimelb_Study/Sem4/project/bitbucket_repos/walkabilityaurin/Walkability-5points/src/main/java/org/mccaughey/GenerateConnectivity.java
/home/suraj/Documents/Unimelb_Study/Sem4/project/bitbucket_repos/walkabilityaurin/Walkability-5points/src/main/java/org/mccaughey/connectivity/NetworkBufferFJ.java
/home/suraj/Documents/Unimelb_Study/Sem4/project/bitbucket_repos/walkabilityaurin/Walkability-5points/src/main/java/org/mccaughey/MainTest.java
/home/suraj/Documents/Unimelb_Study/Sem4/project/bitbucket_repos/walkabilityaurin/Walkability-5points/src/main/java/org/mccaughey/connectivity/ConnectivityIndexOMS.java
/home/suraj/Documents/Unimelb_Study/Sem4/project/bitbucket_repos/walkabilityaurin/Walkability-5points/src/main/java/org/mccaughey/priorityAllocation/Allocater.java
/home/suraj/Documents/Unimelb_Study/Sem4/project/bitbucket_repos/walkabilityaurin/Walkability-5points/src/main/java/org/mccaughey/SendPoint.java
/home/suraj/Documents/Unimelb_Study/Sem4/project/bitbucket_repos/walkabilityaurin/Walkability-5points/src/main/java/org/mccaughey/priorityAllocation/PointInPolygonPriorityAllocationOMS.java
/home/suraj/Documents/Unimelb_Study/Sem4/project/bitbucket_repos/walkabilityaurin/Walkability-5points/src/main/java/org/mccaughey/Config.java
/home/suraj/Documents/Unimelb_Study/Sem4/project/bitbucket_repos/walkabilityaurin/Walkability-5points/src/main/java/org/mccaughey/connectivity/NetworkBuffer.java
/home/suraj/Documents/Unimelb_Study/Sem4/project/bitbucket_repos/walkabilityaurin/Walkability-5points/src/main/java/org/mccaughey/GeneratePolygon.java
/home/suraj/Documents/Unimelb_Study/Sem4/project/bitbucket_repos/walkabilityaurin/Walkability-5points/src/main/java/org/mccaughey/ActiveMQ/Sender.java
/home/suraj/Documents/Unimelb_Study/Sem4/project/bitbucket_repos/walkabilityaurin/Walkability-5points/src/main/java/org/mccaughey/connectivity/ConnectivityIndex.java
/home/suraj/Documents/Unimelb_Study/Sem4/project/bitbucket_repos/walkabilityaurin/Walkability-5points/src/main/java/org/mccaughey/statistics/ZScoreOMS.java
/home/suraj/Documents/Unimelb_Study/Sem4/project/bitbucket_repos/walkabilityaurin/Walkability-5points/src/main/java/org/mccaughey/statistics/CollectionAverageOMS.java
/home/suraj/Documents/Unimelb_Study/Sem4/project/bitbucket_repos/walkabilityaurin/Walkability-5points/src/main/java/org/mccaughey/MainTestOMS.java
/home/suraj/Documents/Unimelb_Study/Sem4/project/bitbucket_repos/walkabilityaurin/Walkability-5points/src/main/java/org/mccaughey/spatial/IntersectionOMS.java
/home/suraj/Documents/Unimelb_Study/Sem4/project/bitbucket_repos/walkabilityaurin/Walkability-5points/src/main/java/org/mccaughey/GenerateZScore.java
/home/suraj/Documents/Unimelb_Study/Sem4/project/bitbucket_repos/walkabilityaurin/Walkability-5points/src/main/java/org/mccaughey/utilities/GeoJSONUtilities.java
/home/suraj/Documents/Unimelb_Study/Sem4/project/bitbucket_repos/walkabilityaurin/Walkability-5points/src/main/java/org/mccaughey/connectivity/ConnectivityIndexFJ.java
/home/suraj/Documents/Unimelb_Study/Sem4/project/bitbucket_repos/walkabilityaurin/Walkability-5points/src/main/java/org/mccaughey/connectivity/NetworkBufferOMS.java
/home/suraj/Documents/Unimelb_Study/Sem4/project/bitbucket_repos/walkabilityaurin/Walkability-5points/src/main/java/org/mccaughey/density/NettDensityOMS.java
/home/suraj/Documents/Unimelb_Study/Sem4/project/bitbucket_repos/walkabilityaurin/Walkability-5points/src/main/java/org/mccaughey/GenerateDensity.java
/home/suraj/Documents/Unimelb_Study/Sem4/project/bitbucket_repos/walkabilityaurin/Walkability-5points/src/main/java/org/mccaughey/density/DwellingDensity.java
/home/suraj/Documents/Unimelb_Study/Sem4/project/bitbucket_repos/walkabilityaurin/Walkability-5points/src/main/java/org/mccaughey/landuse/LandUseMixOMS.java
/home/suraj/Documents/Unimelb_Study/Sem4/project/bitbucket_repos/walkabilityaurin/Walkability-5points/src/main/java/org/mccaughey/GenerateLUM.java
/home/suraj/Documents/Unimelb_Study/Sem4/project/bitbucket_repos/walkabilityaurin/Walkability-5points/src/main/java/org/mccaughey/ActiveMQ/Receiver.java
/home/suraj/Documents/Unimelb_Study/Sem4/project/bitbucket_repos/walkabilityaurin/Walkability-5points/src/main/java/org/mccaughey/landuse/LandUseMix.java
